module gitlab.com/commandff/gdleparse

go 1.19

require github.com/sunshineplan/imgconv v1.1.3

require (
	github.com/disintegration/imaging v1.6.2 // indirect
	github.com/hhrutter/lzw v0.0.0-20190829144645-6f07a24e8650 // indirect
	github.com/hhrutter/tiff v0.0.0-20190829141212-736cae8d0bc7 // indirect
	github.com/pdfcpu/pdfcpu v0.3.13 // indirect
	github.com/pkg/errors v0.9.1 // indirect
	github.com/sunshineplan/pdf v1.0.2 // indirect
	github.com/sunshineplan/tiff v0.0.0-20220128141034-29b9d69bd906 // indirect
	golang.org/x/image v0.0.0-20220902085622-e7cb96979f69 // indirect
	golang.org/x/text v0.3.7 // indirect
	gopkg.in/yaml.v2 v2.4.0 // indirect
)
